SolidWorks IGES file using analytic representation for surfaces         S      1
1H,,1H;,11HE374.SLDPRT,51HC:\Users\sebastien\Documents\Projets\DELOS\E37G      1
4.IGS,15HSolidWorks 2011,15HSolidWorks 2011,32,308,15,308,15,11HE374.SLDG      2
PRT,1.,2,2HMM,50,0.125,13H120814.125410,1E-008,499990.,9Hsebastien,,11, G      3
0,13H120814.125410;                                                     G      4
     126       1       0       0       0                        00000000D      1
     126       0       0      29       0                               0D      2
     126      30       0       0       0                        00000000D      3
     126       0       0      28       0                               0D      4
     314      58       0       0       0                        00000200D      5
     314       0       8       1       0                               0D      6
126,33,3,1,0,1,0,0.,0.,0.,0.,0.00318851962793612,                      1P      1
0.0125613006507296,0.0277300443585951,0.0482569193343398,              1P      2
0.073778820739681,0.103956373987129,0.138403495368156,                 1P      3
0.176587633400285,0.21797963838388,0.261976576864594,                  1P      4
0.307980877044397,0.355341513399649,0.403418987738488,                 1P      5
0.451547869641342,0.499235971959777,0.546184387221801,                 1P      6
0.592135757348231,0.636879769548468,0.68020821220815,                  1P      7
0.722012788918359,0.762020791077016,0.799864482324462,                 1P      8
0.835183184151941,0.86766951393636,0.897046198204278,                  1P      9
0.923108391274574,0.945659937753007,0.964636106639964,                 1P     10
0.979966567141552,0.991746481429521,1.,1.,1.,1.,1.,1.,1.,1.,1.,        1P     11
1.,1.,1.,1.,1.,1.,1.,1.,1.,1.,1.,1.,1.,1.,1.,1.,1.,1.,1.,1.,1.,        1P     12
1.,1.,1.,1.,1.,1.,1.,1.,1.,0.,0.,0.998923162,0.000142064,0.,           1P     13
0.994680914,0.000701732,0.,0.985333467,0.002067688,0.,                 1P     14
0.970176574,0.004512023,0.,0.949602271,0.007913722,0.,                 1P     15
0.923975187,0.012098092,0.,0.893665035,0.017027139,0.,                 1P     16
0.859093057,0.022621635,0.,0.820751898,0.028838387,0.,                 1P     17
0.779195722,0.035552283,0.,0.734998384,0.04262064,0.,                  1P     18
0.688770298,0.049865406,0.,0.641126743,0.057051652,0.,                 1P     19
0.592717433,0.064008455,0.,0.544109261,0.070346494,0.,                 1P     20
0.495762232,0.075655033,0.,0.448025427,0.079580668,0.,                 1P     21
0.401190373,0.08198241,0.,0.355532063,0.082746674,0.,                  1P     22
0.311287503,0.081860393,0.,0.268722305,0.079360769,0.,                 1P     23
0.228127865,0.075598976,0.,0.189879112,0.070714902,0.,                 1P     24
0.154357463,0.064882079,0.,0.121919538,0.058218787,0.,                 1P     25
0.092872399,0.050872948,0.,0.067470983,0.043024255,0.,                 1P     26
0.045952516,0.034814745,0.,0.028388183,0.026513667,0.,                 1P     27
0.015108675,0.018198371,0.,0.00550783,0.010603116,0.,                  1P     28
0.001918683,0.004750998,0.,0.00044,0.00234,0.,0.,1.,0.,0.,0.;          1P     29
126,31,3,1,0,1,0,0.,0.,0.,0.,0.00518742916489747,                      3P     30
0.0125468967817887,0.0246669917439524,0.041794812256447,               3P     31
0.0640174518669765,0.0912703022895787,0.1233713439907,                 3P     32
0.16003770283859,0.200877116387809,0.245452703091614,                  3P     33
0.293264768392735,0.343733298132378,0.396268773224553,                 3P     34
0.450222578163096,0.504926565940424,0.559714018099034,                 3P     35
0.613908944627943,0.666826251970815,0.717800980781808,                 3P     36
0.766218576674152,0.811444704937961,0.852924717174663,                 3P     37
0.890103898644786,0.922506651320666,0.949706612224834,                 3P     38
0.971335228618369,0.987114232884975,0.996754370899997,1.,1.,1.,        3P     39
1.,1.,1.,1.,1.,1.,1.,1.,1.,1.,1.,1.,1.,1.,1.,1.,1.,1.,1.,1.,1.,        3P     40
1.,1.,1.,1.,1.,1.,1.,1.,1.,1.,1.,1.,0.00044,0.00234,0.,                3P     41
0.000316397,0.000448364,0.,1.7437E-005,-0.004126958,0.,                3P     42
0.009100112,-0.007659899,0.,0.02024645,-0.010822038,0.,                3P     43
0.037745801,-0.013018898,0.,0.059911012,-0.01450869,0.,                3P     44
0.08732904,-0.015138777,0.,0.119528322,-0.015102879,0.,                3P     45
0.15630275,-0.014443203,0.,0.197243968,-0.013298001,0.,                3P     46
0.241916158,-0.011754527,0.,0.289810841,-0.009953215,0.,               3P     47
0.340372761,-0.00800802,0.,0.392994963,-0.006017385,0.,                3P     48
0.447040586,-0.004064002,0.,0.501846988,-0.002247482,0.,               3P     49
0.556740228,-0.000617476,0.,0.611040554,0.000768874,0.,                3P     50
0.664067527,0.001893037,0.,0.715161564,0.002711369,0.,                 3P     51
0.763678913,0.00323885,0.,0.809013069,0.003459172,0.,                  3P     52
0.850577279,0.003423378,0.,0.887838002,0.00312658,0.,                  3P     53
0.920305552,0.002654481,0.,0.947552001,0.002031812,0.,                 3P     54
0.969219432,0.001412463,0.,0.984993256,0.000824553,0.,                 3P     55
0.994599525,0.000355613,0.,0.998913427,7.1549E-005,0.,1.,0.,0.,        3P     56
0.,1.,0.,0.,0.;                                                        3P     57
314,79.2156862745098,81.9607843137255,93.3333333333333,;               5P     58
S      1G      4D      6P     58                                        T      1
